/home/fasilkom/mahasiswa/m/muhammad.rifqi64/env/lib/python3.5/site-packages/psycopg2/__init__.py:144: UserWarning: The psycopg2 wheel package will be renamed from release 2.8; in order to keep installing from binary please use "pip install psycopg2-binary" instead. For details see: <http://initd.org/psycopg/docs/install.html#binary-install-from-pypi>.
  """)
System check identified some issues:

WARNINGS:
apps_login.Dosen.id_narasumber: (fields.W342) Setting unique=True on a ForeignKey has the same effect as using a OneToOneField.
	HINT: ForeignKey(unique=True) is usually better served by a OneToOneField.
apps_login.Mahasiswa.id_narasumber: (fields.W342) Setting unique=True on a ForeignKey has the same effect as using a OneToOneField.
	HINT: ForeignKey(unique=True) is usually better served by a OneToOneField.
apps_login.Staf.id_narasumber: (fields.W342) Setting unique=True on a ForeignKey has the same effect as using a OneToOneField.
	HINT: ForeignKey(unique=True) is usually better served by a OneToOneField.
apps_polling.PollingBerita.id_polling: (fields.W342) Setting unique=True on a ForeignKey has the same effect as using a OneToOneField.
	HINT: ForeignKey(unique=True) is usually better served by a OneToOneField.
apps_polling.PollingBiasa.id_polling: (fields.W342) Setting unique=True on a ForeignKey has the same effect as using a OneToOneField.
	HINT: ForeignKey(unique=True) is usually better served by a OneToOneField.
apps_public.NarasumberBerita.url_berita: (fields.W342) Setting unique=True on a ForeignKey has the same effect as using a OneToOneField.
	HINT: ForeignKey(unique=True) is usually better served by a OneToOneField.
apps_public.Tag.url_berita: (fields.W342) Setting unique=True on a ForeignKey has the same effect as using a OneToOneField.
	HINT: ForeignKey(unique=True) is usually better served by a OneToOneField.

System check identified 7 issues (0 silenced).
Invalid HTTP_HOST header: '152.118.25.3:8067'. You may need to add '152.118.25.3' to ALLOWED_HOSTS.
[21/May/2018 09:07:46] "GET / HTTP/1.1" 400 60407
Invalid HTTP_HOST header: '152.118.25.3:8067'. You may need to add '152.118.25.3' to ALLOWED_HOSTS.
[21/May/2018 09:07:54] "GET /favicon.ico HTTP/1.1" 400 60488
Performing system checks...

May 21, 2018 - 09:06:34
Django version 2.0, using settings 'bmnc.settings'
Starting development server at http://152.118.25.3:8067/
Quit the server with CONTROL-C.
/home/fasilkom/mahasiswa/m/muhammad.rifqi64/env/lib/python3.5/site-packages/psycopg2/__init__.py:144: UserWarning: The psycopg2 wheel package will be renamed from release 2.8; in order to keep installing from binary please use "pip install psycopg2-binary" instead. For details see: <http://initd.org/psycopg/docs/install.html#binary-install-from-pypi>.
  """)
/home/fasilkom/mahasiswa/m/muhammad.rifqi64/env/lib/python3.5/site-packages/psycopg2/__init__.py:144: UserWarning: The psycopg2 wheel package will be renamed from release 2.8; in order to keep installing from binary please use "pip install psycopg2-binary" instead. For details see: <http://initd.org/psycopg/docs/install.html#binary-install-from-pypi>.
  """)
System check identified some issues:

WARNINGS:
apps_login.Dosen.id_narasumber: (fields.W342) Setting unique=True on a ForeignKey has the same effect as using a OneToOneField.
	HINT: ForeignKey(unique=True) is usually better served by a OneToOneField.
apps_login.Mahasiswa.id_narasumber: (fields.W342) Setting unique=True on a ForeignKey has the same effect as using a OneToOneField.
	HINT: ForeignKey(unique=True) is usually better served by a OneToOneField.
apps_login.Staf.id_narasumber: (fields.W342) Setting unique=True on a ForeignKey has the same effect as using a OneToOneField.
	HINT: ForeignKey(unique=True) is usually better served by a OneToOneField.
apps_polling.PollingBerita.id_polling: (fields.W342) Setting unique=True on a ForeignKey has the same effect as using a OneToOneField.
	HINT: ForeignKey(unique=True) is usually better served by a OneToOneField.
apps_polling.PollingBiasa.id_polling: (fields.W342) Setting unique=True on a ForeignKey has the same effect as using a OneToOneField.
	HINT: ForeignKey(unique=True) is usually better served by a OneToOneField.
apps_public.NarasumberBerita.url_berita: (fields.W342) Setting unique=True on a ForeignKey has the same effect as using a OneToOneField.
	HINT: ForeignKey(unique=True) is usually better served by a OneToOneField.
apps_public.Tag.url_berita: (fields.W342) Setting unique=True on a ForeignKey has the same effect as using a OneToOneField.
	HINT: ForeignKey(unique=True) is usually better served by a OneToOneField.

System check identified 7 issues (0 silenced).
[21/May/2018 09:08:40] "GET / HTTP/1.1" 301 0
[21/May/2018 09:08:40] "GET /news/ HTTP/1.1" 200 11145
Not Found: /news/theme.css
[21/May/2018 09:08:40] "GET /news/theme.css HTTP/1.1" 404 2958
[21/May/2018 09:08:40] "GET /static/css/main1.css HTTP/1.1" 200 1793
[21/May/2018 09:08:40] "GET /static/css/main_page.css HTTP/1.1" 200 2586
Not Found: /favicon.ico
[21/May/2018 09:08:40] "GET /favicon.ico HTTP/1.1" 404 2518
[21/May/2018 09:08:48] "GET /login/ HTTP/1.1" 200 5464
Not Found: /login/theme.css
[21/May/2018 09:08:48] "GET /login/theme.css HTTP/1.1" 404 3914
[21/May/2018 09:08:48] "GET /static/css/login_page1.css HTTP/1.1" 200 2759
[21/May/2018 09:10:47] "GET /login/ HTTP/1.1" 200 5464
Not Found: /login/theme.css
[21/May/2018 09:10:48] "GET /login/theme.css HTTP/1.1" 404 3914
[21/May/2018 09:10:48] "GET /static/css/main1.css HTTP/1.1" 200 1793
[21/May/2018 09:10:48] "GET /static/css/login_page1.css HTTP/1.1" 200 2759
[21/May/2018 09:11:11] "POST /login/login/ HTTP/1.1" 302 0
[21/May/2018 09:11:11] "GET /login/ HTTP/1.1" 200 6012
Not Found: /login/theme.css
[21/May/2018 09:11:13] "GET /login/theme.css HTTP/1.1" 404 3914
[21/May/2018 09:11:17] "GET /login/register/ HTTP/1.1" 200 24800
Not Found: /login/register/theme.css
[21/May/2018 09:11:17] "GET /login/register/theme.css HTTP/1.1" 404 3941
[21/May/2018 09:11:22] "POST /login/validate-username/ HTTP/1.1" 200 25
[21/May/2018 09:11:25] "POST /login/validate-pwd/ HTTP/1.1" 200 21
[21/May/2018 09:11:32] "POST /login/validate-npm/ HTTP/1.1" 200 44
Performing system checks...

May 21, 2018 - 09:08:37
Django version 2.0, using settings 'bmnc.settings'
Starting development server at http://152.118.25.3:8067/
Quit the server with CONTROL-C.
masuk form
SELECT id FROM narasumber WHERE username = 'fadhlan' and password  = 'zakiri88'
None
None dan fadhlan
None dan fadhlan
None dan fadhlan
None dan fadhlan
None dan fadhlan
None dan fadhlan
None dan fadhlan
None dan fadhlan
None dan fadhlan
None dan fadhlan
None dan fadhlan
None dan fadhlan
None dan fadhlan
None dan fadhlan
None dan fadhlan
None dan fadhlan
None dan fadhlan
None dan fadhlan
None dan fadhlan
None dan fadhlan
None dan fadhlan
None dan fadhlan
None dan fadhlan
None dan fadhlan
None dan fadhlan
None dan fadhlan
None dan fadhlan
None dan fadhlan
None dan fadhlan
None dan fadhlan
None dan fadhlan
None dan fadhlan
None dan fadhlan
None dan fadhlan
None dan fadhlan
None dan fadhlan
None dan fadhlan
None dan fadhlan
None dan fadhlan
None dan fadhlan
None dan fadhlan
None dan fadhlan
None dan fadhlan
None dan fadhlan
None dan fadhlan
None dan fadhlan
None dan fadhlan
None dan fadhlan
None dan fadhlan
None dan fadhlan
None dan fadhlan
None dan fadhlan
None dan fadhlan
None dan fadhlan
None dan fadhlan
None dan fadhlan
None dan fadhlan
None dan fadhlan
None dan fadhlan
None dan fadhlan
None dan fadhlan
None dan fadhlan
None dan fadhlan
None dan fadhlan
None dan fadhlan
None dan fadhlan
None dan fadhlan
None dan fadhlan
None dan fadhlan
None dan fadhlan
None dan fadhlan
None dan fadhlan
None dan fadhlan
None dan fadhlan
None dan fadhlan
None dan fadhlan
None dan fadhlan
None dan fadhlan
None dan fadhlan
None dan fadhlan
None dan fadhlan
None dan fadhlan
None dan fadhlan
None dan fadhlan
None dan fadhlan
None dan fadhlan
None dan fadhlan
None dan fadhlan
None dan fadhlan
None dan fadhlan
None dan fadhlan
None dan fadhlan
None dan fadhlan
None dan fadhlan
None dan fadhlan
None dan fadhlan
None dan fadhlan
None dan fadhlan
None dan fadhlan
None dan fadhlan
None dan fadhlan
None dan fadhlan
None dan fadhlan
None dan fadhlan
None dan fadhlan
None dan fadhlan
None dan fadhlan
None dan fadhlan
None dan fadhlan
None dan fadhlan
None dan fadhlan
None dan fadhlan
None dan fadhlan
None dan fadhlan
None dan fadhlan
None dan fadhlan
None dan fadhlan
None dan fadhlan
None dan fadhlan
None dan fadhlan
None dan fadhlan
None dan fadhlan
None dan fadhlan
None dan fadhlan
None dan fadhlan
None dan fadhlan
None dan fadhlan
None dan fadhlan
None dan fadhlan
None dan fadhlan
None dan fadhlan
None dan fadhlan
None dan fadhlan
None dan fadhlan
None dan fadhlan
None dan fadhlan
None dan fadhlan
None dan fadhlan
None dan fadhlan
None dan fadhlan
None dan fadhlan
None dan fadhlan
None dan fadhlan
None dan fadhlan
None dan fadhlan
None dan fadhlan
None dan fadhlan
None dan fadhlan
None dan fadhlan
None dan fadhlan
None dan fadhlan
None dan fadhlan
None dan fadhlan
None dan fadhlan
None dan fadhlan
None dan fadhlan
None dan fadhlan
None dan fadhlan
None dan fadhlan
None dan fadhlan
None dan fadhlan
None dan fadhlan
None dan fadhlan
None dan fadhlan
None dan fadhlan
None dan fadhlan
None dan fadhlan
None dan fadhlan
None dan fadhlan
None dan fadhlan
None dan fadhlan
None dan fadhlan
None dan fadhlan
None dan fadhlan
None dan fadhlan
None dan fadhlan
None dan fadhlan
None dan fadhlan
None dan fadhlan
None dan fadhlan
None dan fadhlan
None dan fadhlan
None dan fadhlan
None dan fadhlan
None dan fadhlan
None dan fadhlan
None dan fadhlan
None dan fadhlan
None dan fadhlan
None dan fadhlan
None dan fadhlan
None dan fadhlan
None dan fadhlan
None dan fadhlan
None dan fadhlan
None dan fadhlan
None dan fadhlan
None dan fadhlan
None dan fadhlan
None dan fadhlan
None dan fadhlan
None dan fadhlan
None dan fadhlan
None dan fadhlan
None dan fadhlan
None dan fadhlan
None dan fadhlan
None dan fadhlan
None dan fadhlan
None dan fadhlan
None dan fadhlan
None dan fadhlan
None dan fadhlan
None dan fadhlan
None dan fadhlan
None dan fadhlan
None dan fadhlan
None dan fadhlan
None dan fadhlan
None dan fadhlan
None dan fadhlan
None dan fadhlan
None dan fadhlan
None dan fadhlan
None dan fadhlan
None dan fadhlan
None dan fadhlan
None dan fadhlan
None dan fadhlan
None dan fadhlan
None dan fadhlan
None dan fadhlan
None dan fadhlan
None dan fadhlan
None dan fadhlan
None dan fadhlan
None dan fadhlan
None dan fadhlan
None dan fadhlan
None dan fadhlan
None dan fadhlan
None dan fadhlan
None dan fadhlan
None dan fadhlan
None dan fadhlan
None dan fadhlan
None dan fadhlan
None dan fadhlan
None dan fadhlan
None dan fadhlan
None dan fadhlan
None dan fadhlan
None dan fadhlan
None dan fadhlan
None dan fadhlan
None dan fadhlan
None dan fadhlan
None dan fadhlan
None dan fadhlan
None dan fadhlan
None dan fadhlan
None dan fadhlan
None dan fadhlan
None dan fadhlan
None dan fadhlan
None dan fadhlan
None dan fadhlan
None dan fadhlan
None dan fadhlan
None dan fadhlan
None dan fadhlan
None dan fadhlan
None dan fadhlan
None dan fadhlan
None dan fadhlan
None dan fadhlan
None dan fadhlan
None dan fadhlan
None dan fadhlan
None dan fadhlan
None dan fadhlan
None dan fadhlan
None dan fadhlan
None dan fadhlan
None dan fadhlan
[]
cek nik dosen
19981592668
19981592668 dan 1606898978
63096071437 dan 1606898978
29950875654 dan 1606898978
38163424121 dan 1606898978
43602691219 dan 1606898978
11201497486 dan 1606898978
51968495958 dan 1606898978
39689459494 dan 1606898978
22543766273 dan 1606898978
18068922564 dan 1606898978
31035857235 dan 1606898978
37572267546 dan 1606898978
48356077308 dan 1606898978
25139464281 dan 1606898978
31578164193 dan 1606898978
96378686416 dan 1606898978
72819158665 dan 1606898978
69415064554 dan 1606898978
57941410800 dan 1606898978
01460724703 dan 1606898978
23120147680 dan 1606898978
73100581510 dan 1606898978
80113654182 dan 1606898978
22536755525 dan 1606898978
73704824577 dan 1606898978
95837314139 dan 1606898978
23542029946 dan 1606898978
55511779825 dan 1606898978
63964467880 dan 1606898978
11171671613 dan 1606898978
62391151522 dan 1606898978
45275046480 dan 1606898978
25268505375 dan 1606898978
97934414405 dan 1606898978
79726483804 dan 1606898978
80873268571 dan 1606898978
65414166173 dan 1606898978
64661927374 dan 1606898978
89180420497 dan 1606898978
10922711436 dan 1606898978
66064348323 dan 1606898978
16959571076 dan 1606898978
45523581307 dan 1606898978
46476256010 dan 1606898978
20548930368 dan 1606898978
74164961802 dan 1606898978
53868144040 dan 1606898978
74409164038 dan 1606898978
51163148913 dan 1606898978
07771651320 dan 1606898978
09383408295 dan 1606898978
20388085396 dan 1606898978
33093274683 dan 1606898978
93812100079 dan 1606898978
87089678876 dan 1606898978
46819903543 dan 1606898978
38978975769 dan 1606898978
94567631436 dan 1606898978
69600343144 dan 1606898978
87083562162 dan 1606898978
92997409971 dan 1606898978
50876219458 dan 1606898978
13368512932 dan 1606898978
50714181813 dan 1606898978
01284550689 dan 1606898978
30636389535 dan 1606898978
59060155797 dan 1606898978
74767308729 dan 1606898978
03848883867 dan 1606898978
25206116883 dan 1606898978
05766024046 dan 1606898978
32561976334 dan 1606898978
60525218594 dan 1606898978
90550543459 dan 1606898978
15638494186 dan 1606898978
46189417642 dan 1606898978
04459694353 dan 1606898978
89281248033 dan 1606898978
15300184201 dan 1606898978
50277843553 dan 1606898978
23180359557 dan 1606898978
68425897231 dan 1606898978
77288701860 dan 1606898978
89855483380 dan 1606898978
36341113623 dan 1606898978
98798328180 dan 1606898978
93071894279 dan 1606898978
13075745071 dan 1606898978
20935632075 dan 1606898978
19924725912 dan 1606898978
42884570613 dan 1606898978
34089606320 dan 1606898978
59012712804 dan 1606898978
71814340384 dan 1606898978
79485467491 dan 1606898978
40320209092 dan 1606898978
26000145591 dan 1606898978
87259699423 dan 1606898978
87402149001 dan 1606898978
74396983065 dan 1606898978
45070789039 dan 1606898978
37468080924 dan 1606898978
82485845664 dan 1606898978
29213559995 dan 1606898978
18038645613 dan 1606898978
30387954341 dan 1606898978
masuk form
hai
POST
True

hai juga
aktif
insert into MAHASISWA (id_narasumber,npm,status) values (286, '1606898978', 'aktif')
insert into DOSEN (id_narasumber,nik_dosen,jurusan) values (286, '1606898978', 'False')[21/May/2018 09:12:16] "POST /login/register/submit/ HTTP/1.1" 302 0
[21/May/2018 09:12:16] "GET /login/ HTTP/1.1" 200 6067
Not Found: /login/theme.css
[21/May/2018 09:12:17] "GET /login/theme.css HTTP/1.1" 404 3914
[21/May/2018 09:12:25] "POST /login/login/ HTTP/1.1" 302 0
[21/May/2018 09:12:25] "GET /news/ HTTP/1.1" 200 11827
Not Found: /news/theme.css
[21/May/2018 09:12:25] "GET /news/theme.css HTTP/1.1" 404 2958
[21/May/2018 09:12:25] "GET /static/css/main_page.css HTTP/1.1" 200 2586
/home/fasilkom/mahasiswa/m/muhammad.rifqi64/env/lib/python3.5/site-packages/psycopg2/__init__.py:144: UserWarning: The psycopg2 wheel package will be renamed from release 2.8; in order to keep installing from binary please use "pip install psycopg2-binary" instead. For details see: <http://initd.org/psycopg/docs/install.html#binary-install-from-pypi>.
  """)
/home/fasilkom/mahasiswa/m/muhammad.rifqi64/env/lib/python3.5/site-packages/psycopg2/__init__.py:144: UserWarning: The psycopg2 wheel package will be renamed from release 2.8; in order to keep installing from binary please use "pip install psycopg2-binary" instead. For details see: <http://initd.org/psycopg/docs/install.html#binary-install-from-pypi>.
  """)
System check identified some issues:

WARNINGS:
apps_login.Dosen.id_narasumber: (fields.W342) Setting unique=True on a ForeignKey has the same effect as using a OneToOneField.
	HINT: ForeignKey(unique=True) is usually better served by a OneToOneField.
apps_login.Mahasiswa.id_narasumber: (fields.W342) Setting unique=True on a ForeignKey has the same effect as using a OneToOneField.
	HINT: ForeignKey(unique=True) is usually better served by a OneToOneField.
apps_login.Staf.id_narasumber: (fields.W342) Setting unique=True on a ForeignKey has the same effect as using a OneToOneField.
	HINT: ForeignKey(unique=True) is usually better served by a OneToOneField.
apps_polling.PollingBerita.id_polling: (fields.W342) Setting unique=True on a ForeignKey has the same effect as using a OneToOneField.
	HINT: ForeignKey(unique=True) is usually better served by a OneToOneField.
apps_polling.PollingBiasa.id_polling: (fields.W342) Setting unique=True on a ForeignKey has the same effect as using a OneToOneField.
	HINT: ForeignKey(unique=True) is usually better served by a OneToOneField.
apps_public.NarasumberBerita.url_berita: (fields.W342) Setting unique=True on a ForeignKey has the same effect as using a OneToOneField.
	HINT: ForeignKey(unique=True) is usually better served by a OneToOneField.
apps_public.Tag.url_berita: (fields.W342) Setting unique=True on a ForeignKey has the same effect as using a OneToOneField.
	HINT: ForeignKey(unique=True) is usually better served by a OneToOneField.

System check identified 7 issues (0 silenced).
[21/May/2018 09:39:29] "GET /login/logout/ HTTP/1.1" 302 0
[21/May/2018 09:39:29] "GET /login/ HTTP/1.1" 200 6012
Not Found: /login/theme.css
[21/May/2018 09:39:29] "GET /login/theme.css HTTP/1.1" 404 3914
[21/May/2018 09:39:29] "GET /static/css/main1.css HTTP/1.1" 304 0
[21/May/2018 09:39:29] "GET /static/css/login_page1.css HTTP/1.1" 304 0
[21/May/2018 09:39:45] "GET /login/register/ HTTP/1.1" 200 24800
Not Found: /login/register/theme.css
[21/May/2018 09:39:45] "GET /login/register/theme.css HTTP/1.1" 404 3941
[21/May/2018 09:39:49] "GET /login/ HTTP/1.1" 200 5464
[21/May/2018 09:43:56] "POST /login/login/ HTTP/1.1" 302 0
[21/May/2018 09:43:56] "GET /login/ HTTP/1.1" 200 6012
Not Found: /login/theme.css
[21/May/2018 09:43:56] "GET /login/theme.css HTTP/1.1" 404 3914
[21/May/2018 09:44:33] "GET /login/register/ HTTP/1.1" 200 24800
Not Found: /login/register/theme.css
[21/May/2018 09:44:33] "GET /login/register/theme.css HTTP/1.1" 404 3941
[21/May/2018 09:44:40] "POST /login/validate-username/ HTTP/1.1" 200 25
[21/May/2018 09:44:43] "POST /login/validate-pwd/ HTTP/1.1" 200 58
[21/May/2018 09:44:57] "POST /login/validate-npm/ HTTP/1.1" 200 44
[21/May/2018 09:46:16] "POST /login/validate-pwd/ HTTP/1.1" 200 21
Performing system checks...

May 21, 2018 - 09:39:27
Django version 2.0, using settings 'bmnc.settings'
Starting development server at http://152.118.25.3:8067/
Quit the server with CONTROL-C.
masuk form
SELECT id FROM narasumber WHERE username = 'u12345' and password  = 'p12345'
None
None dan u12345
None dan u12345
None dan u12345
None dan u12345
None dan u12345
None dan u12345
None dan u12345
None dan u12345
None dan u12345
None dan u12345
None dan u12345
None dan u12345
None dan u12345
None dan u12345
None dan u12345
None dan u12345
None dan u12345
None dan u12345
None dan u12345
None dan u12345
None dan u12345
None dan u12345
None dan u12345
None dan u12345
None dan u12345
None dan u12345
None dan u12345
None dan u12345
None dan u12345
None dan u12345
None dan u12345
None dan u12345
None dan u12345
None dan u12345
None dan u12345
None dan u12345
None dan u12345
None dan u12345
None dan u12345
None dan u12345
None dan u12345
None dan u12345
None dan u12345
None dan u12345
None dan u12345
None dan u12345
None dan u12345
None dan u12345
None dan u12345
None dan u12345
None dan u12345
None dan u12345
None dan u12345
None dan u12345
None dan u12345
None dan u12345
None dan u12345
None dan u12345
None dan u12345
None dan u12345
None dan u12345
None dan u12345
None dan u12345
None dan u12345
None dan u12345
None dan u12345
None dan u12345
None dan u12345
None dan u12345
None dan u12345
None dan u12345
None dan u12345
None dan u12345
None dan u12345
None dan u12345
None dan u12345
None dan u12345
None dan u12345
None dan u12345
None dan u12345
None dan u12345
None dan u12345
None dan u12345
None dan u12345
None dan u12345
None dan u12345
None dan u12345
None dan u12345
None dan u12345
None dan u12345
None dan u12345
None dan u12345
None dan u12345
None dan u12345
None dan u12345
None dan u12345
None dan u12345
None dan u12345
None dan u12345
None dan u12345
None dan u12345
None dan u12345
None dan u12345
None dan u12345
None dan u12345
None dan u12345
None dan u12345
None dan u12345
None dan u12345
None dan u12345
None dan u12345
None dan u12345
None dan u12345
None dan u12345
None dan u12345
None dan u12345
None dan u12345
None dan u12345
None dan u12345
None dan u12345
None dan u12345
None dan u12345
None dan u12345
None dan u12345
None dan u12345
None dan u12345
None dan u12345
None dan u12345
None dan u12345
None dan u12345
None dan u12345
None dan u12345
None dan u12345
None dan u12345
None dan u12345
None dan u12345
None dan u12345
None dan u12345
None dan u12345
None dan u12345
None dan u12345
None dan u12345
None dan u12345
None dan u12345
None dan u12345
None dan u12345
None dan u12345
None dan u12345
None dan u12345
None dan u12345
None dan u12345
None dan u12345
None dan u12345
None dan u12345
None dan u12345
None dan u12345
None dan u12345
None dan u12345
None dan u12345
None dan u12345
None dan u12345
None dan u12345
None dan u12345
None dan u12345
None dan u12345
None dan u12345
None dan u12345
None dan u12345
None dan u12345
None dan u12345
None dan u12345
None dan u12345
None dan u12345
None dan u12345
None dan u12345
None dan u12345
None dan u12345
None dan u12345
None dan u12345
None dan u12345
None dan u12345
None dan u12345
None dan u12345
None dan u12345
None dan u12345
None dan u12345
None dan u12345
None dan u12345
None dan u12345
None dan u12345
None dan u12345
None dan u12345
None dan u12345
None dan u12345
None dan u12345
None dan u12345
None dan u12345
None dan u12345
None dan u12345
None dan u12345
None dan u12345
None dan u12345
None dan u12345
None dan u12345
None dan u12345
None dan u12345
None dan u12345
None dan u12345
None dan u12345
None dan u12345
None dan u12345
None dan u12345
None dan u12345
None dan u12345
None dan u12345
None dan u12345
None dan u12345
None dan u12345
None dan u12345
None dan u12345
None dan u12345
None dan u12345
None dan u12345
None dan u12345
None dan u12345
None dan u12345
None dan u12345
None dan u12345
None dan u12345
None dan u12345
None dan u12345
None dan u12345
None dan u12345
None dan u12345
None dan u12345
None dan u12345
None dan u12345
None dan u12345
None dan u12345
None dan u12345
None dan u12345
None dan u12345
None dan u12345
None dan u12345
None dan u12345
None dan u12345
None dan u12345
None dan u12345
None dan u12345
None dan u12345
None dan u12345
None dan u12345
None dan u12345
None dan u12345
None dan u12345
None dan u12345
None dan u12345
None dan u12345
None dan u12345
None dan u12345
None dan u12345
None dan u12345
None dan u12345
None dan u12345
None dan u12345
None dan u12345
None dan u12345
None dan u12345
None dan u12345
None dan u12345
None dan u12345
None dan u12345
None dan u12345
None dan u12345
None dan u12345
None dan u12345
None dan u12345
None dan u12345
None dan u12345
None dan u12345
None dan u12345
None dan u12345
None dan u12345
None dan u12345
None dan u12345
fadhlan dan u12345
['Panjang password minimal 8 karakter']
cek nik dosen
19981592668
19981592668 dan 1606874476
63096071437 dan 1606874476
29950875654 dan 1606874476
38163424121 dan 1606874476
43602691219 dan 1606874476
11201497486 dan 1606874476
51968495958 dan 1606874476
39689459494 dan 1606874476
22543766273 dan 1606874476
18068922564 dan 1606874476
31035857235 dan 1606874476
37572267546 dan 1606874476
48356077308 dan 1606874476
25139464281 dan 1606874476
31578164193 dan 1606874476
96378686416 dan 1606874476
72819158665 dan 1606874476
69415064554 dan 1606874476
57941410800 dan 1606874476
01460724703 dan 1606874476
23120147680 dan 1606874476
73100581510 dan 1606874476
80113654182 dan 1606874476
22536755525 dan 1606874476
73704824577 dan 1606874476
95837314139 dan 1606874476
23542029946 dan 1606874476
55511779825 dan 1606874476
63964467880 dan 1606874476
11171671613 dan 1606874476
62391151522 dan 1606874476
45275046480 dan 1606874476
25268505375 dan 1606874476
97934414405 dan 1606874476
79726483804 dan 1606874476
80873268571 dan 1606874476
65414166173 dan 1606874476
64661927374 dan 1606874476
89180420497 dan 1606874476
10922711436 dan 1606874476
66064348323 dan 1606874476
16959571076 dan 1606874476
45523581307 dan 1606874476
46476256010 dan 1606874476
20548930368 dan 1606874476
74164961802 dan 1606874476
53868144040 dan 1606874476
74409164038 dan 1606874476
51163148913 dan 1606874476
07771651320 dan 1606874476
09383408295 dan 1606874476
20388085396 dan 1606874476
33093274683 dan 1606874476
93812100079 dan 1606874476
87089678876 dan 1606874476
46819903543 dan 1606874476
38978975769 dan 1606874476
94567631436 dan 1606874476
69600343144 dan 1606874476
87083562162 dan 1606874476
92997409971 dan 1606874476
50876219458 dan 1606874476
13368512932 dan 1606874476
50714181813 dan 1606874476
01284550689 dan 1606874476
30636389535 dan 1606874476
59060155797 dan 1606874476
74767308729 dan 1606874476
03848883867 dan 1606874476
25206116883 dan 1606874476
05766024046 dan 1606874476
32561976334 dan 1606874476
60525218594 dan 1606874476
90550543459 dan 1606874476
15638494186 dan 1606874476
46189417642 dan 1606874476
04459694353 dan 1606874476
89281248033 dan 1606874476
15300184201 dan 1606874476
50277843553 dan 1606874476
23180359557 dan 1606874476
68425897231 dan 1606874476
77288701860 dan 1606874476
89855483380 dan 1606874476
36341113623 dan 1606874476
98798328180 dan 1606874476
93071894279 dan 1606874476
13075745071 dan 1606874476
20935632075 dan 1606874476
19924725912 dan 1606874476
42884570613 dan 1606874476
34089606320 dan 1606874476
59012712804 dan 1606874476
71814340384 dan 1606874476
79485467491 dan 1606874476
40320209092 dan 1606874476
26000145591 dan 1606874476
87259699423 dan 1606874476
87402149001 dan 1606874476
74396983065 dan 1606874476
45070789039 dan 1606874476
37468080924 dan 1606874476
82485845664 dan 1606874476
29213559995 dan 1606874476
18038645613 dan 1606874476
30387954341 dan 1606874476
1606898978 dan 1606874476
[]
masuk form
hai
POST
True

hai juga
aktif
insert into MAHASISWA (id_narasumber,npm,status) values (287, '1606874476', 'aktif')
insert into DOSEN (id_narasumber,nik_dosen,jurusan) values (287, '1606874476', 'False')
insert into STAF (id_narasumber,nik_staf,posisi) values (287, '1606874476', 'False')
1
insert into NARASUMBER (id, nama, email, tempat, tanggal, no_hp, jumlah_berita, rerata_kata, id_universitas, username, password) values (287, 'Oktav', 'oktavio.rei@gmail.com', 'Surabaya', '1997-10-10', '087776717579', 0, 0, 1, 'u12345', 'p1234567')[21/May/2018 09:46:47] "POST /login/register/submit/ HTTP/1.1" 302 0
[21/May/2018 09:46:47] "GET /login/ HTTP/1.1" 200 6067
Not Found: /login/theme.css
[21/May/2018 09:46:47] "GET /static/css/main1.css HTTP/1.1" 304 0
[21/May/2018 09:46:47] "GET /login/theme.css HTTP/1.1" 404 3914
[21/May/2018 09:46:47] "GET /static/css/login_page1.css HTTP/1.1" 304 0
[21/May/2018 09:51:19] "POST /login/login/ HTTP/1.1" 302 0
[21/May/2018 09:51:19] "GET /news/ HTTP/1.1" 200 11827
Not Found: /news/theme.css
[21/May/2018 09:51:20] "GET /news/theme.css HTTP/1.1" 404 2958
[21/May/2018 09:51:20] "GET /static/css/main_page.css HTTP/1.1" 304 0
[21/May/2018 09:55:00] "GET /login/logout/ HTTP/1.1" 302 0
[21/May/2018 09:55:00] "GET /login/ HTTP/1.1" 200 6012
Not Found: /login/theme.css
[21/May/2018 09:55:00] "GET /static/css/main1.css HTTP/1.1" 304 0
[21/May/2018 09:55:00] "GET /login/theme.css HTTP/1.1" 404 3914
[21/May/2018 09:55:00] "GET /static/css/login_page1.css HTTP/1.1" 304 0
[21/May/2018 09:55:52] "POST /login/login/ HTTP/1.1" 302 0
[21/May/2018 09:55:52] "GET /news/ HTTP/1.1" 200 11827
Not Found: /news/theme.css
[21/May/2018 09:55:52] "GET /news/theme.css HTTP/1.1" 404 2958
[21/May/2018 09:59:20] "POST /news/submit/ HTTP/1.1" 302 0
[21/May/2018 09:59:20] "GET /news/ HTTP/1.1" 200 11820
Not Found: /news/theme.css
[21/May/2018 09:59:20] "GET /news/theme.css HTTP/1.1" 404 2958
[21/May/2018 09:59:20] "GET /static/css/main_page.css HTTP/1.1" 304 0
[21/May/2018 10:01:39] "GET /polling/ HTTP/1.1" 200 104295
Not Found: /polling/theme.css
[21/May/2018 10:01:40] "GET /polling/theme.css HTTP/1.1" 404 2987
[21/May/2018 10:01:40] "GET /static/css/polling_page.css HTTP/1.1" 200 3369
[21/May/2018 10:02:04] "GET /polling/ HTTP/1.1" 200 104295
Not Found: /polling/theme.css
[21/May/2018 10:02:05] "GET /polling/theme.css HTTP/1.1" 404 2987
[21/May/2018 10:02:05] "GET /static/css/main1.css HTTP/1.1" 304 0
[21/May/2018 10:02:14] "GET /polling/ HTTP/1.1" 200 104295
Not Found: /polling/theme.css
[21/May/2018 10:02:14] "GET /polling/theme.css HTTP/1.1" 404 2987
[21/May/2018 10:02:42] "GET /polling/ HTTP/1.1" 200 104295
Not Found: /polling/theme.css
[21/May/2018 10:02:43] "GET /polling/theme.css HTTP/1.1" 404 2987
[21/May/2018 10:02:44] "GET /polling/ HTTP/1.1" 200 104295
Not Found: /polling/theme.css
[21/May/2018 10:02:44] "GET /polling/theme.css HTTP/1.1" 404 2987
[21/May/2018 10:02:45] "GET /user/user-profile/ HTTP/1.1" 200 9267
Not Found: /user/user-profile/theme.css
[21/May/2018 10:02:45] "GET /user/user-profile/theme.css HTTP/1.1" 404 2838
[21/May/2018 10:02:45] "GET /static/css/user.css HTTP/1.1" 404 1663
[21/May/2018 10:02:49] "GET /polling/ HTTP/1.1" 200 104295
Not Found: /polling/theme.css
[21/May/2018 10:02:50] "GET /polling/theme.css HTTP/1.1" 404 2987
[21/May/2018 10:02:51] "GET /news/ HTTP/1.1" 200 11278
Not Found: /news/theme.css
[21/May/2018 10:02:52] "GET /news/theme.css HTTP/1.1" 404 2958
[21/May/2018 10:02:53] "GET /polling/ HTTP/1.1" 200 104295
Not Found: /polling/theme.css
[21/May/2018 10:02:54] "GET /polling/theme.css HTTP/1.1" 404 2987
[21/May/2018 10:03:07] "GET /polling/ HTTP/1.1" 200 104295
Not Found: /polling/theme.css
[21/May/2018 10:03:07] "GET /polling/theme.css HTTP/1.1" 404 2987
[21/May/2018 10:03:33] "GET /polling/ HTTP/1.1" 200 104295
Not Found: /polling/theme.css
[21/May/2018 10:03:33] "GET /polling/theme.css HTTP/1.1" 404 2987
[21/May/2018 10:04:08] "GET / HTTP/1.1" 301 0
[21/May/2018 10:04:09] "GET /news/ HTTP/1.1" 200 11278
Not Found: /news/theme.css
[21/May/2018 10:04:09] "GET /news/theme.css HTTP/1.1" 404 2958
[21/May/2018 10:04:19] "GET /polling/ HTTP/1.1" 200 104295
Not Found: /polling/theme.css
[21/May/2018 10:04:20] "GET /polling/theme.css HTTP/1.1" 404 2987
[21/May/2018 10:04:49] "GET /login/ HTTP/1.1" 200 5464
[21/May/2018 10:04:50] "GET /static/css/main1.css HTTP/1.1" 304 0
Not Found: /login/theme.css
[21/May/2018 10:04:50] "GET /static/css/login_page1.css HTTP/1.1" 304 0
[21/May/2018 10:04:50] "GET /login/theme.css HTTP/1.1" 404 3914
[21/May/2018 10:06:04] "POST /login/login/ HTTP/1.1" 302 0
[21/May/2018 10:06:04] "GET /news/ HTTP/1.1" 200 11827
Not Found: /news/theme.css
[21/May/2018 10:06:04] "GET /news/theme.css HTTP/1.1" 404 2958
[21/May/2018 10:06:04] "GET /static/css/main_page.css HTTP/1.1" 304 0
[21/May/2018 10:06:08] "GET /user/user-profile/ HTTP/1.1" 200 9267
Not Found: /user/user-profile/theme.css
[21/May/2018 10:06:08] "GET /user/user-profile/theme.css HTTP/1.1" 404 2838
[21/May/2018 10:06:08] "GET /static/css/user.css HTTP/1.1" 404 1663
[21/May/2018 10:06:11] "GET /polling/ HTTP/1.1" 200 104295
Not Found: /polling/theme.css
[21/May/2018 10:06:11] "GET /polling/theme.css HTTP/1.1" 404 2987
[21/May/2018 10:06:11] "GET /static/css/polling_page.css HTTP/1.1" 200 3369
[21/May/2018 10:06:26] "GET /polling/ HTTP/1.1" 200 104295
Not Found: /polling/theme.css
[21/May/2018 10:06:26] "GET /polling/theme.css HTTP/1.1" 404 2987
[21/May/2018 10:08:16] "GET /polling/ HTTP/1.1" 200 104295
[21/May/2018 10:08:19] "GET /polling/ HTTP/1.1" 200 104295
Not Found: /polling/theme.css
[21/May/2018 10:08:20] "GET /polling/theme.css HTTP/1.1" 404 2987
Not Found: /polling/theme.css
[21/May/2018 10:08:31] "GET /polling/theme.css HTTP/1.1" 404 2987
[21/May/2018 10:09:21] "GET / HTTP/1.1" 301 0
[21/May/2018 10:09:21] "GET /news/ HTTP/1.1" 200 11145
Not Found: /news/theme.css
[21/May/2018 10:09:21] "GET /news/theme.css HTTP/1.1" 404 2958
[21/May/2018 10:09:21] "GET /static/css/main1.css HTTP/1.1" 200 1793
[21/May/2018 10:09:21] "GET /static/css/main_page.css HTTP/1.1" 200 2586
Not Found: /favicon.ico
[21/May/2018 10:09:23] "GET /favicon.ico HTTP/1.1" 404 2518
/home/fasilkom/mahasiswa/m/muhammad.rifqi64/env/lib/python3.5/site-packages/psycopg2/__init__.py:144: UserWarning: The psycopg2 wheel package will be renamed from release 2.8; in order to keep installing from binary please use "pip install psycopg2-binary" instead. For details see: <http://initd.org/psycopg/docs/install.html#binary-install-from-pypi>.
  """)
